{
  "orders": [
    {
      "id": 1,
      "date": "Thu Dec 19 18:47:12 HKT 2019",
      "item": {
        "id": 12,
        "name": "Derailleur Hanger for Access XCL and XCL 29er Frames",
        "price": 10.00,
        "description": "Replacement alloy derailleur hanger for Access XCL frames. ",
        "type": "ACCESSORIES",
        "quantity": 1008
      },
      "emailAddress": "user@example.com"
    },
    {
      "id": 2,
      "date": "Wed Mar 20 08:11:21 HKT 2013",
      "item": {
        "id": 13,
        "name": "Lizard Skins Chainstay Guard",
        "price": 7.99,
        "description": "Frame protection at its best! Small: Standard Large: Jumbo ",
        "type": "ACCESSORIES",
        "quantity": 319
      },
      "emailAddress": "peter-buck@example.com"
    },
    {
      "id": 3,
      "date": "Fri Dec 20 11:37:53 HKT 2019",
      "item": {
        "id": 6,
        "name": "Fuji Altamira CX 1.0 Cyclocross",
        "price": 2599.99,
        "description": "Fuji's Altamira CX 1.0 cyclocross frameset is the perfect platform for building up the cross bike of your dreams.",
        "type": "FRAME",
        "quantity": 429
      },
      "emailAddress": "ft_user@example.com1576813060960"
    }
  ]
}
